Poisson regression - Birmingham Statistics Summer School, adapted for Birmingham R User Group
…
# Load tidyverse and broom for tidy regression outputs:

library(tidyverse)
library(broom)

# Load in the iconicity dataset:

nettle <- read_csv('nettle_1999_climate.csv')

# Check dataset:

nettle

## # A tibble: 74 x 5
##    Country      Population  Area   MGS Langs
##    <chr>             <dbl> <dbl> <dbl> <dbl>
##  1 Algeria            4.41  6.38  6.6     18
##  2 Angola             4.01  6.1   6.22    42
##  3 Australia          4.24  6.89  6      234
##  4 Bangladesh         5.07  5.16  7.4     37
##  5 Benin              3.69  5.05  7.14    52
##  6 Bolivia            3.88  6.04  6.92    38
##  7 Botswana           3.13  5.76  4.6     27
##  8 Brazil             5.19  6.93  9.71   209
##  9 Burkina Faso       3.97  5.44  5.17    75
## 10 CAR                3.5   5.79  8.08    94
## #  with 64 more rows
…
Computing predictions with predict():

Its often easier to compute predictions with the predict() function. For example, if you were a bit foggy about the arithmetic of your regression model, or about what to transform and how to transform, you can use predict().

The predict() function takes as its first argument the model that forms the basis for the predictions. The second argument is a data frame (or tibble) to generate predictions for.

Lets specify this tibble first. Here, we are going to generate a series of xs of the predictor ranging from 0 to 12 in a really small step-size. Importantly, you have to label the column exactly the same way the predictor is named in the model.

newpreds <- tibble(MGS = seq(0, 12, 0.01))

# Check:

newpreds

## # A tibble: 1,201 x 1
##      MGS
##    <dbl>
##  1  0   
##  2  0.01
##  3  0.02
##  4  0.03
##  5  0.04
##  6  0.05
##  7  0.06
##  8  0.07
##  9  0.08
## 10  0.09
## #  with 1,191 more rows
…
MGS_preds <- predict(MGS_mdl, newpreds,
                     type = 'response')
head(MGS_preds)

##        1        2        3        4        5        6 
## 30.45637 30.49938 30.54245 30.58557 30.62876 30.67201

Lets put these into the same tibble:

# Put predictor values and predictions into same tibble:

mypreds <- tibble(MGS = newpreds$MGS, Rate = MGS_preds)
mypreds

## # A tibble: 1,201 x 2
##      MGS  Rate
##    <dbl> <dbl>
##  1  0     30.5
##  2  0.01  30.5
##  3  0.02  30.5
##  4  0.03  30.6
##  5  0.04  30.6
##  6  0.05  30.7
##  7  0.06  30.7
##  8  0.07  30.8
##  9  0.08  30.8
## 10  0.09  30.8
## #  with 1,191 more rows
…
